…
    ## using cached file: ~/Library/Caches/R/noaa_ghcnd/USS0023B17S.dly

    ## date created (size, mb): 2022-09-29 10:32:19 (0.95)

    ## file min/max dates: 1999-09-01 / 2022-09-30

## `group(by)`

``` r
weather_df %>% 
  group_by(name)
```

    ## # A tibble: 1,095 × 7
    ## # Groups:   name [3]
    ##    name           id          date        prcp  tmax  tmin month     
    ##    <chr>          <chr>       <date>     <dbl> <dbl> <dbl> <date>    
    ##  1 CentralPark_NY USW00094728 2017-01-01     0   8.9   4.4 2017-01-01
    ##  2 CentralPark_NY USW00094728 2017-01-02    53   5     2.8 2017-01-01
    ##  3 CentralPark_NY USW00094728 2017-01-03   147   6.1   3.9 2017-01-01
    ##  4 CentralPark_NY USW00094728 2017-01-04     0  11.1   1.1 2017-01-01
    ##  5 CentralPark_NY USW00094728 2017-01-05     0   1.1  -2.7 2017-01-01
    ##  6 CentralPark_NY USW00094728 2017-01-06    13   0.6  -3.8 2017-01-01
    ##  7 CentralPark_NY USW00094728 2017-01-07    81  -3.2  -6.6 2017-01-01
    ##  8 CentralPark_NY USW00094728 2017-01-08     0  -3.8  -8.8 2017-01-01
    ##  9 CentralPark_NY USW00094728 2017-01-09     0  -4.9  -9.9 2017-01-01
    ## 10 CentralPark_NY USW00094728 2017-01-10     0   7.8  -6   2017-01-01
    ## # … with 1,085 more rows

``` r
weather_df %>% 
  group_by(month)
```

    ## # A tibble: 1,095 × 7
    ## # Groups:   month [12]
    ##    name           id          date        prcp  tmax  tmin month     
    ##    <chr>          <chr>       <date>     <dbl> <dbl> <dbl> <date>    
    ##  1 CentralPark_NY USW00094728 2017-01-01     0   8.9   4.4 2017-01-01
    ##  2 CentralPark_NY USW00094728 2017-01-02    53   5     2.8 2017-01-01
    ##  3 CentralPark_NY USW00094728 2017-01-03   147   6.1   3.9 2017-01-01
    ##  4 CentralPark_NY USW00094728 2017-01-04     0  11.1   1.1 2017-01-01
    ##  5 CentralPark_NY USW00094728 2017-01-05     0   1.1  -2.7 2017-01-01
    ##  6 CentralPark_NY USW00094728 2017-01-06    13   0.6  -3.8 2017-01-01
    ##  7 CentralPark_NY USW00094728 2017-01-07    81  -3.2  -6.6 2017-01-01
    ##  8 CentralPark_NY USW00094728 2017-01-08     0  -3.8  -8.8 2017-01-01
    ##  9 CentralPark_NY USW00094728 2017-01-09     0  -4.9  -9.9 2017-01-01
    ## 10 CentralPark_NY USW00094728 2017-01-10     0   7.8  -6   2017-01-01
    ## # … with 1,085 more rows
…
Let’s group and summarize.

``` r
weather_df %>% 
  group_by(name, month) %>% 
  summarize(
    n_obs = n()
  )
```

    ## `summarise()` has grouped output by 'name'. You can override using the `.groups`
    ## argument.

    ## # A tibble: 36 × 3
    ## # Groups:   name [3]
    ##    name           month      n_obs
    ##    <chr>          <date>     <int>
    ##  1 CentralPark_NY 2017-01-01    31
    ##  2 CentralPark_NY 2017-02-01    28
    ##  3 CentralPark_NY 2017-03-01    31
    ##  4 CentralPark_NY 2017-04-01    30
    ##  5 CentralPark_NY 2017-05-01    31
    ##  6 CentralPark_NY 2017-06-01    30
    ##  7 CentralPark_NY 2017-07-01    31
    ##  8 CentralPark_NY 2017-08-01    31
    ##  9 CentralPark_NY 2017-09-01    30
    ## 10 CentralPark_NY 2017-10-01    31
    ## # … with 26 more rows

Can we count in other ways?

``` r
weather_df %>% 
  count(name, month)
```

    ## # A tibble: 36 × 3
    ##    name           month          n
    ##    <chr>          <date>     <int>
    ##  1 CentralPark_NY 2017-01-01    31
    ##  2 CentralPark_NY 2017-02-01    28
    ##  3 CentralPark_NY 2017-03-01    31
    ##  4 CentralPark_NY 2017-04-01    30
    ##  5 CentralPark_NY 2017-05-01    31
    ##  6 CentralPark_NY 2017-06-01    30
    ##  7 CentralPark_NY 2017-07-01    31
    ##  8 CentralPark_NY 2017-08-01    31
    ##  9 CentralPark_NY 2017-09-01    30
    ## 10 CentralPark_NY 2017-10-01    31
    ## # … with 26 more rows
…
    ## `summarise()` has grouped output by 'name'. You can override using the `.groups`
    ## argument.

``` r
weather_df %>% 
  group_by(name, month) %>% 
  summarize(across(prcp:tmin, mean))
```

    ## `summarise()` has grouped output by 'name'. You can override using the `.groups`
    ## argument.

    ## # A tibble: 36 × 5
    ## # Groups:   name [3]
    ##    name           month       prcp  tmax   tmin
    ##    <chr>          <date>     <dbl> <dbl>  <dbl>
    ##  1 CentralPark_NY 2017-01-01  39.5  5.98  0.748
    ##  2 CentralPark_NY 2017-02-01  22.5  9.28  1.45 
    ##  3 CentralPark_NY 2017-03-01  43.0  8.22 -0.177
    ##  4 CentralPark_NY 2017-04-01  32.5 18.3   9.66 
    ##  5 CentralPark_NY 2017-05-01  52.3 20.1  12.2  
    ##  6 CentralPark_NY 2017-06-01  40.4 26.3  18.2  
    ##  7 CentralPark_NY 2017-07-01  34.3 28.7  21.0  
    ##  8 CentralPark_NY 2017-08-01  27.4 27.2  19.5  
    ##  9 CentralPark_NY 2017-09-01  17.0 25.4  17.4  
    ## 10 CentralPark_NY 2017-10-01  34.3 21.8  13.9  
    ## # … with 26 more rows
…
